<?xml version="1.0" encoding="UTF-8" standalone="no"?>
<svg viewBox="0 0 336.94928 283.02417" xmlns="http://www.w3.org/2000/svg">
<g transform="translate(534.18893,-45.13581)">
<path class="fil0" d="m-531.47709,238.99672c14.24391-20.10751 87.65548-124.09785 99.13315-140.65045s28.41653-19.62314 49.09203-6.55379 15.00099,9.12488 27.4645,17.04341l-40.59761,60.45045c-9.2638-3.52331-19.59429-7.1747-30.80571,10.76397s-31.9832,40.78081-52.49902,72.4316-66.03125,6.62232-51.78734-13.48519z" fill="#fff" fill-rule="evenodd"/>
<path class="fil1" d="m-527.43449,239.91549c11.61494-16.72716 90.66023-130.48295 99.13315-140.65045s21.1823-17.79313 43.21189-5.08375c5.04884,2.91288 15.00098,9.12488 27.4645,17.04341l-36.50651,53.9301c-9.2638-3.52331-23.64001-5.15413-33.35401,10.38838-12.70938,20.335-45.71186,67.61851-55.87937,76.93873-16.94584,22.02959-55.68459,4.16075-44.06965-12.56642zm61.63805,31.10779c-5.42278-13.11841.22749-30.15374 21.74992-32.13057l-21.74992,32.13057z" fill-rule="evenodd"/>
<path class="fil0" d="m106.379,142.977 19.697,14.106-91.1956,125.151-25.977,14.766 6.3053-28.907 91.1703-125.116z" fill="#fff" fill-rule="evenodd" transform="matrix(1.83754,0,0,1.83754,-534.18282,-217.59083)"/>
<path class="fil1" d="m106.828,145.758 16.444,11.777-89.7544,123.173-21.7046,12.338 5.26-24.115 89.755-123.173z" fill-rule="evenodd" transform="matrix(1.83754,0,0,1.83754,-534.18282,-217.59083)"/>
<path class="fil0" d="m-337.6005,119.91647c41.57794,26.66369 93.97737,60.92913 103.17667,66.59023 9.12488,5.61536 26.97332,8.17561 37.18419,8.21659v89.5158c-48.32155.85023-211.61717,4.8061-244.70951,5.66625-37.13035.96508-40.01768-52.09641 0-53.78806s50.08247-3.72121 62.79185-7.11038 25.0178-12.16803 14.88448-26.46707-12.17245-17.35855-17.13695-23.29565l43.80964-59.32771h-.00037z" fill="#fff" fill-rule="evenodd"/>
<path class="fil1" d="m-339.98931,122.48903c41.57794,26.6637 95.79286,62.04636 103.17667,66.59024 10.92586,6.72357 29.35294,9.27831 39.573,9.31911v82.35728c-49.1354.90241-217.60205,5.13226-244.70951,5.65835-30.36965.58948-38.13971-45.97592 0-47.66757s50.08247-2.21883 62.79185-5.608 31.10631-13.75935 18.64042-31.34979c-7.80093-11.00782-13.67483-19.61212-18.63932-25.54923l39.16726-53.75039h-.00037z" fill-rule="evenodd"/>
</g>
</svg>
